<?xml version="1.0" encoding="utf-8"?>
<!-- Generator: Adobe Illustrator 19.0.1, SVG Export Plug-In . SVG Version: 6.00 Build 0)  -->
<svg version="1.1" id="Слой_1" xmlns="http://www.w3.org/2000/svg" xmlns:xlink="http://www.w3.org/1999/xlink" x="0px" y="0px"
	 viewBox="-255 347 100 100" style="enable-background:new -255 347 100 100;" xml:space="preserve">
<style type="text/css">
	.st0{fill:#FFFFFF;stroke:#ff4b4b;stroke-width:2;stroke-miterlimit:10;}
	.st1{fill:none;stroke:#FF4B4B;stroke-width:2;stroke-miterlimit:10;}
	.st2{fill:none;stroke:#ff4b4b;stroke-width:2;stroke-miterlimit:10;}
</style>
<image style="display:none;overflow:visible;enable-background:new    ;" width="50" height="50" xlink:href="stat11.png"  transform="matrix(1.2199 0 0 1.2199 -233 364.25)">
</image>
<polygon class="st0" points="-202.9,352.5 -195.9,352.5 -161.2,352.5 -161.2,360.7 -202.9,360.7 "/>
<line class="st0" x1="-195.9" y1="360.7" x2="-195.9" y2="352.5"/>
<line class="st0" x1="-189.4" y1="360.7" x2="-189.4" y2="352.5"/>
<line class="st0" x1="-182.8" y1="360.7" x2="-182.8" y2="352.5"/>
<line class="st0" x1="-169.4" y1="360.7" x2="-169.4" y2="352.5"/>
<line class="st0" x1="-176.1" y1="361.2" x2="-176.1" y2="353.1"/>
<polygon class="st0" points="-207.1,361.2 -200.1,361.2 -165.4,361.2 -165.4,369.4 -207.1,369.4 "/>
<line class="st0" x1="-200.1" y1="369.4" x2="-200.1" y2="361.2"/>
<line class="st0" x1="-193.6" y1="369.4" x2="-193.6" y2="361.2"/>
<line class="st0" x1="-187" y1="369.4" x2="-187" y2="361.2"/>
<line class="st0" x1="-173.6" y1="369.4" x2="-173.6" y2="361.2"/>
<line class="st0" x1="-180.3" y1="370" x2="-180.3" y2="361.8"/>
<polygon class="st0" points="-210.2,370 -203.2,370 -168.5,370 -168.5,378.1 -210.2,378.1 "/>
<line class="st0" x1="-203.2" y1="378.1" x2="-203.2" y2="370"/>
<line class="st0" x1="-196.7" y1="378.1" x2="-196.7" y2="370"/>
<line class="st0" x1="-190.2" y1="378.1" x2="-190.2" y2="370"/>
<line class="st0" x1="-176.8" y1="378.1" x2="-176.8" y2="370"/>
<line class="st0" x1="-183.4" y1="378.7" x2="-183.4" y2="370.6"/>
<polygon class="st0" points="-202.2,378.7 -195.2,378.7 -160.5,378.7 -160.5,386.9 -202.2,386.9 "/>
<line class="st1" x1="-195.2" y1="386.9" x2="-195.2" y2="378.7"/>
<line class="st0" x1="-188.7" y1="386.9" x2="-188.7" y2="378.7"/>
<line class="st0" x1="-182.1" y1="386.9" x2="-182.1" y2="378.7"/>
<line class="st0" x1="-168.7" y1="386.9" x2="-168.7" y2="378.7"/>
<line class="st0" x1="-175.4" y1="387.4" x2="-175.4" y2="379.3"/>
<polygon class="st0" points="-204.3,387.4 -197.3,387.4 -162.6,387.4 -162.6,395.6 -204.3,395.6 "/>
<line class="st1" x1="-197.3" y1="395.6" x2="-197.3" y2="387.4"/>
<line class="st1" x1="-190.8" y1="395.6" x2="-190.8" y2="387.4"/>
<line class="st0" x1="-184.2" y1="395.6" x2="-184.2" y2="387.4"/>
<line class="st0" x1="-170.8" y1="395.6" x2="-170.8" y2="387.4"/>
<line class="st0" x1="-177.5" y1="396.2" x2="-177.5" y2="388"/>
<polygon class="st0" points="-200.1,396.2 -193.1,396.2 -158.4,396.2 -158.4,404.3 -200.1,404.3 "/>
<line class="st1" x1="-193.1" y1="404.3" x2="-193.1" y2="396.2"/>
<line class="st1" x1="-186.6" y1="404.3" x2="-186.6" y2="396.2"/>
<line class="st0" x1="-180" y1="404.3" x2="-180" y2="396.2"/>
<line class="st0" x1="-166.6" y1="404.3" x2="-166.6" y2="396.2"/>
<line class="st0" x1="-173.3" y1="404.9" x2="-173.3" y2="396.8"/>
<polygon class="st0" points="-200.1,404.9 -193.1,404.9 -158.4,404.9 -158.4,413.1 -200.1,413.1 "/>
<line class="st1" x1="-193.1" y1="413.1" x2="-193.1" y2="404.9"/>
<line class="st1" x1="-186.6" y1="413.1" x2="-186.6" y2="404.9"/>
<line class="st0" x1="-180" y1="413.1" x2="-180" y2="404.9"/>
<line class="st0" x1="-166.6" y1="413.1" x2="-166.6" y2="404.9"/>
<line class="st0" x1="-173.3" y1="413.7" x2="-173.3" y2="405.5"/>
<polygon class="st0" points="-200.1,413.7 -193.1,413.7 -158.4,413.7 -158.4,421.8 -200.1,421.8 "/>
<line class="st1" x1="-193.1" y1="421.8" x2="-193.1" y2="413.7"/>
<line class="st0" x1="-186.6" y1="421.8" x2="-186.6" y2="413.7"/>
<line class="st0" x1="-180" y1="421.8" x2="-180" y2="413.7"/>
<line class="st0" x1="-166.6" y1="421.8" x2="-166.6" y2="413.7"/>
<line class="st0" x1="-173.3" y1="422.4" x2="-173.3" y2="414.2"/>
<polygon class="st0" points="-200.1,421.8 -193.1,421.8 -158.4,421.8 -158.4,430 -200.1,430 "/>
<line class="st1" x1="-193.1" y1="430" x2="-193.1" y2="421.8"/>
<line class="st0" x1="-186.6" y1="430" x2="-186.6" y2="421.8"/>
<line class="st0" x1="-180" y1="430" x2="-180" y2="421.8"/>
<line class="st0" x1="-166.6" y1="430" x2="-166.6" y2="421.8"/>
<line class="st0" x1="-173.3" y1="430.5" x2="-173.3" y2="422.4"/>
<polygon class="st0" points="-200.1,429.3 -193.1,429.3 -158.4,429.3 -158.4,437.4 -200.1,437.4 "/>
<line class="st0" x1="-193.1" y1="437.4" x2="-193.1" y2="429.3"/>
<line class="st0" x1="-186.6" y1="437.4" x2="-186.6" y2="429.3"/>
<line class="st0" x1="-180" y1="437.4" x2="-180" y2="429.3"/>
<line class="st0" x1="-166.6" y1="437.4" x2="-166.6" y2="429.3"/>
<line class="st0" x1="-173.3" y1="438" x2="-173.3" y2="429.8"/>
<g>
	
		<!--<animateTransform  fill="remove" restart="whenNotActive" calcMode="ease" values="0 33 33;-55 33 33;0 33 33" begin="0s" additive="replace" repeatCount="indefinite" accumulate="none" attributeName="transform" type="rotate" dur="4s">
		</animateTransform>-->
	<circle class="st0" cx="-215.3" cy="403.2" r="33.1"/>
	<line class="st0" x1="-215.3" y1="370.1" x2="-215.3" y2="436.4"/>
	<line class="st0" x1="-248.4" y1="403.2" x2="-182.1" y2="403.2"/>
	<line class="st0" x1="-191.9" y1="379.7" x2="-238.8" y2="426.6"/>
	<line class="st0" x1="-203" y1="371.9" x2="-227.7" y2="433.4"/>
	<line class="st0" x1="-227.6" y1="372.5" x2="-202.9" y2="434"/>
	<line class="st0" x1="-184.8" y1="390.2" x2="-245.8" y2="416.1"/>
	<line class="st0" x1="-245.8" y1="390.2" x2="-184.8" y2="416.2"/>
	<line class="st0" x1="-238.7" y1="379.7" x2="-191.8" y2="426.6"/>
	<circle class="st0" cx="-215.3" cy="403.2" r="26.5"/>
	<line class="st0" x1="-215.3" y1="384.5" x2="-215.3" y2="423.2"/>
	<line class="st0" x1="-234.6" y1="403.9" x2="-195.9" y2="403.9"/>
	<circle class="st0" cx="-215.3" cy="403.9" r="15.1"/>
	<path class="st0" d="M-212.2,398.6c-1.1-1.7-3.3-2.2-4.9-1.4c-1.9,1-2.2,3.5-1.5,4.9c0.8,1.5,2.6,0.9,4.5,2.9
		c0.6,0.6,1.5,1.6,1.5,2.9c0,1.4-1,3-2.5,3.5c-1.7,0.5-3.8-0.4-4.6-2.2"/>
	<line class="st0" x1="-215.3" y1="393.7" x2="-215.3" y2="396.8"/>
	<line class="st0" x1="-215.1" y1="411.4" x2="-215.1" y2="413.8"/>
</g>
<g>
	
		<animate  fill="remove" attributeType="XML" restart="whenNotActive" calcMode="ease" values="1;0;1" begin="1s" additive="replace" repeatCount="indefinite" accumulate="none" attributeName="opacity" dur="2s">
		</animate>
	<path class="st0" d="M-247.4,367.8c0,3.2,0,6.3,0,9.5"/>
	<line class="st0" x1="-251.7" y1="372.5" x2="-243" y2="372.5"/>
</g>
<g>
	
		<animate  fill="remove" attributeType="XML" restart="whenNotActive" calcMode="ease" values="1;0;1" begin="0s" additive="replace" repeatCount="indefinite" accumulate="none" attributeName="opacity" dur="2s">
		</animate>
	<path class="st0" d="M-218.4,351c-2.2,2.2-4.5,4.5-6.7,6.7"/>
	<line class="st2" x1="-224.8" y1="351.3" x2="-218.7" y2="357.5"/>
</g>
</svg>
